{
	"id": "5ae9cc69-71fb-794d-3312-06524056f9ae",
	"name": "Wallet",
	"description": "",
	"order": [
		"fbc93728-39fa-d6b4-0504-c2c8dc2bf70b",
		"abf23501-ae87-ef64-0af9-fabd96e79800",
		"33f9cf25-f23e-0dc7-7ea1-bcf797e509c7",
		"59649fb7-02d5-dccf-2ad8-e3fd3d218cb5"
	],
	"folders": [],
	"timestamp": 1496829318128,
	"owner": 0,
	"public": false,
	"requests": [
		{
			"id": "33f9cf25-f23e-0dc7-7ea1-bcf797e509c7",
			"headers": "Accept: application/json\nx-auth-key:  Zioj23D92j2kGf9D\nContent-Type: application/json\n",
			"headerData": [
				{
					"key": "Accept",
					"value": "application/json",
					"description": "",
					"enabled": true
				},
				{
					"key": "x-auth-key",
					"value": " Zioj23D92j2kGf9D",
					"description": "",
					"enabled": true
				},
				{
					"key": "Content-Type",
					"value": "application/json",
					"description": "",
					"enabled": true
				}
			],
			"url": "http://www.takatack-wallet.com/api/wallet/add",
			"queryParams": [],
			"preRequestScript": null,
			"pathVariables": {},
			"pathVariableData": [],
			"method": "POST",
			"data": [],
			"dataMode": "raw",
			"tests": null,
			"currentHelper": "normal",
			"helperAttributes": {},
			"time": 1496854970790,
			"name": "ADD WALLET",
			"description": "",
			"collectionId": "5ae9cc69-71fb-794d-3312-06524056f9ae",
			"responses": [],
			"rawModeData": "{\"email\":\"test@wallet.io\",\"wallet_balance\":\"100\"}"
		},
		{
			"id": "59649fb7-02d5-dccf-2ad8-e3fd3d218cb5",
			"headers": "Accept: application/json\nx-auth-key: Zioj23D92j2kGf9D\nContent-Type: application/json\n",
			"headerData": [
				{
					"key": "Accept",
					"value": "application/json",
					"description": "",
					"enabled": true
				},
				{
					"key": "x-auth-key",
					"value": "Zioj23D92j2kGf9D",
					"description": "",
					"enabled": true
				},
				{
					"key": "Content-Type",
					"value": "application/json",
					"description": "",
					"enabled": true
				}
			],
			"url": "http://www.takatack-wallet.com/api/wallet/delete",
			"queryParams": [],
			"preRequestScript": null,
			"pathVariables": {},
			"pathVariableData": [],
			"method": "POST",
			"data": [],
			"dataMode": "raw",
			"tests": null,
			"currentHelper": "normal",
			"helperAttributes": {},
			"time": 1496852665989,
			"name": "DELETE WALLET",
			"description": "",
			"collectionId": "5ae9cc69-71fb-794d-3312-06524056f9ae",
			"responses": [],
			"rawModeData": "{\"email\":\"john@wallet.io\"}"
		},
		{
			"id": "abf23501-ae87-ef64-0af9-fabd96e79800",
			"headers": "Accept: application/json\nContent-Type: application/json\n",
			"headerData": [
				{
					"key": "Accept",
					"value": "application/json",
					"description": "",
					"enabled": true
				},
				{
					"key": "Content-Type",
					"value": "application/json",
					"description": "",
					"enabled": true
				}
			],
			"url": "http://www.takatack-wallet.com/api/wallet/view",
			"queryParams": [],
			"preRequestScript": null,
			"pathVariables": {},
			"pathVariableData": [],
			"method": "POST",
			"data": [],
			"dataMode": "raw",
			"tests": null,
			"currentHelper": "normal",
			"helperAttributes": {},
			"time": 1496851000670,
			"name": "VIEW WALLET BALANCE",
			"description": "",
			"collectionId": "5ae9cc69-71fb-794d-3312-06524056f9ae",
			"responses": [],
			"rawModeData": "{\"email\" : \"john@wallet.io\"}"
		},
		{
			"id": "fbc93728-39fa-d6b4-0504-c2c8dc2bf70b",
			"headers": "Accept: application/json\nContent-Type: application/json\n",
			"headerData": [
				{
					"key": "Accept",
					"value": "application/json",
					"description": "",
					"enabled": true
				},
				{
					"key": "Content-Type",
					"value": "application/json",
					"description": "",
					"enabled": true
				}
			],
			"url": "http://www.takatack-wallet.com/api/wallet/update",
			"queryParams": [],
			"preRequestScript": null,
			"pathVariables": {},
			"pathVariableData": [],
			"method": "POST",
			"data": [],
			"dataMode": "raw",
			"tests": null,
			"currentHelper": "normal",
			"helperAttributes": {},
			"time": 1496852142220,
			"name": "UPDATE WALLET BALANCE",
			"description": "",
			"collectionId": "5ae9cc69-71fb-794d-3312-06524056f9ae",
			"responses": [],
			"rawModeData": "{\n\t\"email\" : \"john@wallet.io\",\n\t\"transaction\" : \"reload\",\n\t\"amount\" :   \"1000\",\n\t\"remarks\" : \"\"\n}"
		}
	]
}